<!-- BOX TABLE (EQUAL COLUMNS) -->
<div class="table-responsive">
<table class="ContentTemp_Box table">
  <tr>
    <td>Box 1</td>
    <td>Box 2</td>
  </tr>
  <tr>
    <td>Box 3</td>
    <td>Box 4</td>
  </tr>
</table>
</div> <!—- /.table-responsive —->